<?xml version="1.0" encoding="utf-8"?>
<!-- Generator: Adobe Illustrator 24.3.0, SVG Export Plug-In . SVG Version: 6.00 Build 0)  -->
<svg version="1.1" id="Livello_1" xmlns="http://www.w3.org/2000/svg" xmlns:xlink="http://www.w3.org/1999/xlink" x="0px" y="0px"
	 viewBox="0 0 264 70" style="enable-background:new 0 0 264 70;" xml:space="preserve">
<style type="text/css">
	.st0{fill:#FFFFFF;}
</style>
<g>
	<path class="st0" d="M232.9,18.1c-1.2-2.6-2.8-5-4.9-7.1c-0.4-0.4-0.8-0.7-1.2-1.1c-1.8-1.5-3.8-2.8-6-3.7C218,5.1,215,4.5,212,4.5
		c-3,0-6,0.6-8.8,1.7c-2.6,1.1-4.9,2.6-6.9,4.5l-0.1,0.1l-0.2,0.2c-2.1,2-3.8,4.4-4.9,7.1c-1.2,2.7-1.8,5.7-1.8,8.7
		c0,3,0.6,5.9,1.8,8.7c1.2,2.6,2.8,5,4.9,7.1c2.1,2,4.5,3.6,7.2,4.8c2.8,1.2,5.8,1.7,8.8,1.7c3,0,6-0.6,8.8-1.7
		c2.7-1.1,5.1-2.7,7.2-4.7c2.1-2.1,3.8-4.5,4.9-7.1c1.2-2.7,1.8-5.7,1.8-8.7C234.7,23.8,234.1,20.9,232.9,18.1 M225.7,32.5
		c-0.8,1.7-1.8,3.3-3.2,4.6c-2.3,2-4.7,3.1-4.7,3.1l-0.1,0c-1.8,0.8-3.8,1.1-5.8,1.1c-2,0-3.9-0.4-5.8-1.1c-1.8-0.7-3.4-1.8-4.8-3.1
		c-1.4-1.3-2.5-2.9-3.2-4.6c-0.8-1.8-1.2-3.7-1.2-5.7s0.4-3.9,1.2-5.7c0.8-1.7,1.8-3.3,3.2-4.6l0.3-0.3l0.1-0.1
		c1.3-1.2,2.8-2.1,4.4-2.8c1.8-0.8,3.8-1.1,5.8-1.1c2,0,3.9,0.4,5.8,1.1c1.3,0.5,2.4,1.2,3.5,2c0.4,0.3,0.9,0.7,1.2,1.1
		c1.4,1.3,2.5,2.9,3.2,4.6c0.8,1.8,1.2,3.7,1.2,5.7C226.9,28.8,226.5,30.7,225.7,32.5"/>
	<path class="st0" d="M54.6,8.9l-16.7,29c-0.3,0.4-0.7,0.7-1.2,0.7c-0.5,0-1-0.3-1.2-0.7l-16.7-29c-1-1.7-2.9-2.8-4.9-2.8H7.4
		l20.8,36c2.3,3.8,4.5,5.5,8.4,5.5c4.1,0,6.3-1.7,8.4-5.5l20.8-36h-6.4C57.5,6.1,55.6,7.1,54.6,8.9"/>
	<path class="st0" d="M175.8,8.9l-16.7,29c-0.3,0.4-0.7,0.7-1.2,0.7c-0.5,0-1-0.3-1.2-0.7l-16.7-29c-1-1.7-2.9-2.8-4.9-2.8h-6.4
		l20.8,36c2.3,3.8,4.5,5.5,8.4,5.5c4.1,0,6.3-1.7,8.4-5.5l20.8-36h-6.4C178.7,6.1,176.8,7.1,175.8,8.9"/>
	<path class="st0" d="M88.3,29h6.4L83.1,8.9c-1-1.7-2.9-2.8-4.9-2.8h-6.4l11.6,20.1C84.4,27.9,86.3,29,88.3,29"/>
	<path class="st0" d="M112.2,8.9L81.8,61.5h6.4c2,0,3.9-1.1,4.9-2.8l30.4-52.6h-6.3C115.2,6.1,113.3,7.1,112.2,8.9"/>
	<path class="st0" d="M240.1,13.6V6.1h-3V4.5h7.9v1.6h-3v7.5H240.1z M254.7,13.6V7.5l0,0l-2.6,6h-1.3l-2.6-6h-0.1v6.1h-1.7V4.4h2.3
		l2.7,6.4h0.1l2.7-6.4h2.3v9.1L254.7,13.6L254.7,13.6z"/>
	<g>
		<path class="st0" d="M112.2,61.4v-7.7h0l-3.2,7.7h-1l-3.2-7.7h0v7.7h-1.2v-10h1.4l3.4,8.4h0.1l3.4-8.4h1.4v10H112.2z"/>
		<path class="st0" d="M114.7,59.4c0-1.2,0.9-2,2.6-2.1l2.1-0.1v-0.6c0-0.9-0.6-1.4-1.6-1.4c-0.9,0-1.5,0.4-1.7,1.1h-1.2
			c0.1-1.2,1.1-2.2,2.8-2.2c1.7,0,2.7,0.9,2.7,2.3v5h-1.1v-1.2h0c-0.4,0.8-1.3,1.4-2.3,1.4C115.6,61.5,114.7,60.6,114.7,59.4z
			 M119.3,58.7v-0.6l-1.9,0.1c-1,0.1-1.5,0.5-1.5,1.2c0,0.7,0.6,1.1,1.4,1.1C118.4,60.5,119.3,59.7,119.3,58.7z"/>
		<path class="st0" d="M126.5,54.2h1.5l-3.1,3.1l3.2,4.1h-1.4L124,58l-0.7,0.6v2.7h-1.2v-10h1.2v6L126.5,54.2z"/>
		<path class="st0" d="M128.8,52.2c0-0.4,0.3-0.8,0.8-0.8c0.4,0,0.8,0.3,0.8,0.8c0,0.4-0.3,0.8-0.8,0.8
			C129.1,52.9,128.8,52.6,128.8,52.2z M129,54.2h1.2v7.2H129V54.2z"/>
		<path class="st0" d="M131.8,54.2h1.1v1.1h0c0.4-0.8,1.2-1.3,2.3-1.3c1.6,0,2.5,1,2.5,2.6v4.7h-1.2v-4.4c0-1.2-0.5-1.8-1.6-1.8
			c-1.1,0-1.9,0.8-1.9,2v4.2h-1.2V54.2z"/>
		<path class="st0" d="M139.2,62h1.2c0.2,0.7,0.9,1.1,1.8,1.1c1.2,0,2-0.7,2-1.8v-1.1h0c-0.4,0.8-1.3,1.3-2.3,1.3
			c-1.8,0-3-1.4-3-3.7c0-2.2,1.2-3.7,3.1-3.7c1,0,1.9,0.5,2.3,1.3h0v-1.2h1.1v7c0,1.7-1.3,2.8-3.2,2.8
			C140.6,64.1,139.4,63.2,139.2,62z M144.2,57.8c0-1.6-0.8-2.6-2.1-2.6c-1.2,0-2,1-2,2.6c0,1.6,0.8,2.6,2,2.6
			C143.4,60.4,144.2,59.3,144.2,57.8z"/>
		<path class="st0" d="M156.1,61.4h-6v-10h1.2v8.8h4.8V61.4z"/>
		<path class="st0" d="M157.2,52.2c0-0.4,0.3-0.8,0.8-0.8c0.4,0,0.8,0.3,0.8,0.8c0,0.4-0.3,0.8-0.8,0.8
			C157.5,52.9,157.2,52.6,157.2,52.2z M157.4,54.2h1.2v7.2h-1.2V54.2z"/>
		<path class="st0" d="M160.6,55.2h-1v-1h1v-0.8c0-1.4,0.6-2,2-2c0.3,0,0.6,0,0.7,0.1v1c-0.1,0-0.3,0-0.5,0c-0.6,0-1,0.3-1,1.1v0.8
			h1.5v1h-1.5v6.2h-1.2V55.2z"/>
		<path class="st0" d="M170.1,59.3c-0.2,1.3-1.4,2.2-3,2.2c-2.1,0-3.3-1.4-3.3-3.7c0-2.2,1.3-3.7,3.2-3.7c1.9,0,3.1,1.4,3.1,3.6v0.5
			H165v0.1c0,1.4,0.8,2.3,2.1,2.3c0.9,0,1.6-0.5,1.8-1.1H170.1z M165,57.2h3.9c0-1.2-0.8-2.1-1.9-2.1C165.9,55.1,165.1,56,165,57.2z
			"/>
		<path class="st0" d="M177.7,61.4h-1.2l-2.7-10h1.3l2,8.1h0.1l2.2-8.1h1.3l2.2,8.1h0.1l2-8.1h1.3l-2.7,10h-1.2l-2.3-7.9H180
			L177.7,61.4z"/>
		<path class="st0" d="M186.2,57.8c0-2.3,1.3-3.7,3.3-3.7c2,0,3.3,1.4,3.3,3.7c0,2.3-1.3,3.7-3.3,3.7
			C187.5,61.5,186.2,60.1,186.2,57.8z M191.6,57.8c0-1.7-0.8-2.7-2.1-2.7s-2.1,1-2.1,2.7c0,1.7,0.8,2.7,2.1,2.7
			S191.6,59.5,191.6,57.8z"/>
		<path class="st0" d="M194,54.2h1.1v1.1h0c0.4-0.8,1.2-1.3,2.3-1.3c1.6,0,2.5,1,2.5,2.6v4.7h-1.2v-4.4c0-1.2-0.5-1.8-1.6-1.8
			c-1.1,0-1.9,0.8-1.9,2v4.2H194V54.2z"/>
		<path class="st0" d="M201.1,57.8c0-2.2,1.2-3.7,3-3.7c1,0,1.9,0.5,2.3,1.3h0v-3.9h1.2v10h-1.1v-1.2h0c-0.5,0.8-1.3,1.3-2.3,1.3
			C202.4,61.5,201.1,60,201.1,57.8z M202.4,57.8c0,1.6,0.8,2.7,2.1,2.7c1.2,0,2.1-1,2.1-2.7c0-1.6-0.8-2.7-2.1-2.7
			C203.2,55.1,202.4,56.2,202.4,57.8z"/>
		<path class="st0" d="M215.2,59.3c-0.2,1.3-1.4,2.2-3,2.2c-2.1,0-3.3-1.4-3.3-3.7c0-2.2,1.3-3.7,3.2-3.7c1.9,0,3.1,1.4,3.1,3.6v0.5
			h-5.1v0.1c0,1.4,0.8,2.3,2.1,2.3c0.9,0,1.6-0.5,1.8-1.1H215.2z M210.2,57.2h3.9c0-1.2-0.8-2.1-1.9-2.1
			C211.1,55.1,210.3,56,210.2,57.2z"/>
		<path class="st0" d="M216.5,54.2h1.1v1.2h0c0.2-0.8,0.9-1.3,1.7-1.3c0.2,0,0.4,0,0.5,0v1.2c-0.1,0-0.4-0.1-0.6-0.1
			c-0.9,0-1.5,0.7-1.5,1.7v4.5h-1.2V54.2z"/>
		<path class="st0" d="M221.3,55.2h-1v-1h1v-0.8c0-1.4,0.6-2,2-2c0.3,0,0.6,0,0.7,0.1v1c-0.1,0-0.3,0-0.5,0c-0.6,0-1,0.3-1,1.1v0.8
			h1.5v1h-1.5v6.2h-1.2V55.2z"/>
		<path class="st0" d="M231.1,61.4h-1.1v-1.2h0c-0.4,0.8-1.2,1.3-2.3,1.3c-1.6,0-2.5-1-2.5-2.6v-4.7h1.2v4.4c0,1.2,0.5,1.8,1.7,1.8
			c1.2,0,1.9-0.8,1.9-2v-4.2h1.2V61.4z"/>
		<path class="st0" d="M232.7,51.4h1.2v10h-1.2V51.4z"/>
	</g>
</g>
</svg>
